<svg id="_1057248" data-name="1057248" xmlns="http://www.w3.org/2000/svg" xmlns:xlink="http://www.w3.org/1999/xlink" viewBox="0 0 39.521 39.521">
  <defs>
    <style>
      .cls-1 {
        fill: url(#linear-gradient);
      }

      .cls-2 {
        fill: #fff;
      }
    </style>
    <linearGradient id="linear-gradient" y1="-41.23" x2="1" y2="-41.23" gradientUnits="objectBoundingBox">
      <stop offset="0" stop-color="#00f1ff"/>
      <stop offset="0.231" stop-color="#00d8ff"/>
      <stop offset="0.514" stop-color="#00c0ff"/>
      <stop offset="0.777" stop-color="#00b2ff"/>
      <stop offset="1" stop-color="#00adff"/>
    </linearGradient>
  </defs>
  <path id="Path_66" data-name="Path 66" class="cls-1" d="M39.521,19.76A19.76,19.76,0,1,1,19.76,0,19.76,19.76,0,0,1,39.521,19.76Zm0,0"/>
  <g id="Group_58" data-name="Group 58" transform="translate(6.522 6.445)">
    <path id="Path_67" data-name="Path 67" class="cls-2" d="M103.341,110.13H92.289a7.8,7.8,0,0,1-7.789-7.789V91.289A7.8,7.8,0,0,1,92.289,83.5h11.052a7.8,7.8,0,0,1,7.789,7.789V101.3a1.158,1.158,0,1,1-2.316,0V91.289a5.479,5.479,0,0,0-5.473-5.473H92.289a5.479,5.479,0,0,0-5.473,5.473v11.052a5.479,5.479,0,0,0,5.473,5.473h11.052a5.436,5.436,0,0,0,4.364-2.169,1.158,1.158,0,1,1,1.845,1.4,7.734,7.734,0,0,1-6.209,3.085Zm0,0" transform="translate(-84.5 -83.5)"/>
    <path id="Path_68" data-name="Path 68" class="cls-2" d="M170.486,176.723a7.236,7.236,0,1,1,7.236-7.236A7.244,7.244,0,0,1,170.486,176.723Zm0-12.157a4.921,4.921,0,1,0,4.921,4.921A4.926,4.926,0,0,0,170.486,164.566Zm0,0" transform="translate(-157.171 -156.171)"/>
    <path id="Path_69" data-name="Path 69" class="cls-2" d="M339.146,150.252a1.03,1.03,0,1,1-1.03-1.03A1.03,1.03,0,0,1,339.146,150.252Zm0,0" transform="translate(-317.589 -144.149)"/>
  </g>
</svg>
